Combinational Circuit/comb_ckt/simulation/qsim/comb_ckt.msim.vcd
$comment
	File created using the following command:
		vcd file comb_ckt.msim.vcd -direction
$end
$date
	Sat Oct 30 10:54:49 2021
$end
$version
	ModelSim Version 10.5b
$end
$timescale
	1ps
$end

$scope module comb_ckt_verilog_vlg_vec_tst $end
$var reg 4 ! A [3:0] $end
$var reg 4 " B [3:0] $end
$var reg 1 # C $end
$var reg 1 $ D $end
$var reg 1 % E $end
$var reg 1 & F $end
$var reg 1 ' S0 $end
$var reg 1 ( S1 $end
$var wire 1 ) Y $end

$scope module i1 $end
$var wire 1 * gnd $end
$var wire 1 + vcc $end
$var wire 1 , unknown $end
$var tri1 1 - devclrn $end
$var tri1 1 . devpor $end
$var tri1 1 / devoe $end
$var wire 1 0 Y~output_o $end
$var wire 1 1 S0~input_o $end
$var wire 1 2 A[3]~input_o $end
$var wire 1 3 B[3]~input_o $end
$var wire 1 4 A[2]~input_o $end
$var wire 1 5 B[2]~input_o $end
$var wire 1 6 A[0]~input_o $end
$var wire 1 7 b2v_inst2|Y~2_combout $end
$var wire 1 8 b2v_inst2|Y~3_combout $end
$var wire 1 9 A[1]~input_o $end
$var wire 1 : B[0]~input_o $end
$var wire 1 ; B[1]~input_o $end
$var wire 1 < b2v_inst2|Y~6_combout $end
$var wire 1 = b2v_inst2|Y~1_combout $end
$var wire 1 > S1~input_o $end
$var wire 1 ? b2v_inst2|Y~4_combout $end
$var wire 1 @ b2v_inst2|Y~5_combout $end
$var wire 1 A b2v_inst2|Y~7_combout $end
$var wire 1 B D~input_o $end
$var wire 1 C E~input_o $end
$var wire 1 D F~input_o $end
$var wire 1 E C~input_o $end
$var wire 1 F b2v_inst2|Y~0_combout $end
$var wire 1 G b2v_inst2|Y~8_combout $end
$upscope $end
$upscope $end
$enddefinitions $end
#0
$dumpvars
b0 !
b0 "
x#
x$
x%
x&
x'
x(
x)
0*
1+
x,
1-
1.
1/
x0
x1
02
03
04
05
06
07
08
09
0:
0;
0<
1=
x>
0?
x@
xA
xB
xC
xD
xE
xF
xG
$end
#3906
b1 "
1:
1?
1<
#7812
b0 "
0:
0?
0<
#7813
b10 "
1;
1?
1<
#11718
b11 "
1:
#15624
b10 "
0:
#15625
b110 "
b100 "
0;
15
0?
0<
0=
17
18
1<
#19530
b101 "
1:
0<
#23436
b100 "
0:
1<
#23438
b110 "
1;
1?
#27342
b111 "
1:
#31248
b110 "
0:
#31250
b1110 "
b1010 "
b1000 "
0;
05
13
0?
07
#35154
b1001 "
1:
0<
#39060
b1000 "
0:
1<
#39063
b1010 "
1;
1?
#42966
b1011 "
1:
#46872
b1010 "
0:
#46875
b1110 "
b1100 "
0;
15
0?
17
#50778
b1101 "
1:
0<
#54684
b1100 "
0:
1<
#54688
b1110 "
1;
1?
#58590
b1111 "
1:
#62496
b1110 "
0:
#62500
b1 !
b110 "
b10 "
b0 "
0;
05
03
16
0?
1=
#66402
b1 "
1:
0<
#70308
b0 "
0:
1<
#70313
b10 "
1;
1?
#74214
b11 "
1:
#78120
b10 "
0:
#78125
b110 "
b100 "
0;
15
0?
0=
#82026
b101 "
1:
0<
#85932
b100 "
0:
1<
#85938
b110 "
1;
1?
#89838
b111 "
1:
#93744
b110 "
0:
#93750
b1110 "
b1010 "
b1000 "
0;
05
13
0?
#97650
b1001 "
1:
0<
#101556
b1000 "
0:
1<
#101563
b1010 "
1;
1?
#105462
b1011 "
1:
#109368
b1010 "
0:
#109375
b1110 "
b1100 "
0;
15
0?
#113274
b1101 "
1:
0<
#117180
b1100 "
0:
1<
#117188
b1110 "
1;
1?
#121086
b1111 "
1:
#124992
b1110 "
0:
#125000
b11 !
b10 !
b110 "
b10 "
b0 "
0;
05
03
06
19
0?
1=
07
08
#128898
b1 "
1:
#132804
b0 "
0:
#132813
b10 "
1;
0<
#136710
b11 "
1:
1?
1<
#140616
b10 "
0:
0?
0<
#140625
b110 "
b100 "
0;
15
1<
0=
17
18
#144522
b101 "
1:
#148428
b100 "
0:
#148438
b110 "
1;
#152334
b111 "
1:
0<
#156240
b110 "
0:
1<
#156250
b1110 "
b1010 "
b1000 "
0;
05
13
07
#160146
b1001 "
1:
#164052
b1000 "
0:
#164063
b1010 "
1;
#167958
b1011 "
1:
0<
#171864
b1010 "
0:
1<
#171875
b1110 "
b1100 "
0;
15
17
#175770
b1101 "
1:
#179676
b1100 "
0:
#179688
b1110 "
1;
#183582
b1111 "
1:
0<
#187488
b1110 "
0:
1<
#187500
b11 !
b110 "
b10 "
b0 "
0;
05
03
16
1=
#191394
b1 "
1:
#195300
b0 "
0:
#195313
b10 "
1;
#199206
b11 "
1:
0<
#203112
b10 "
0:
1<
#203125
b110 "
b100 "
0;
15
0=
#207018
b101 "
1:
#210924
b100 "
0:
#210938
b110 "
1;
#214830
b111 "
1:
0<
#218736
b110 "
0:
1<
#218750
b1110 "
b1010 "
b1000 "
0;
05
13
#222642
b1001 "
1:
#226548
b1000 "
0:
#226563
b1010 "
1;
#230454
b1011 "
1:
0<
#234360
b1010 "
0:
1<
#234375
b1110 "
b1100 "
0;
15
#238266
b1101 "
1:
#242172
b1100 "
0:
#242188
b1110 "
1;
#246078
b1111 "
1:
0<
#249984
b1110 "
0:
1<
#250000
b111 !
b101 !
b100 !
b110 "
b10 "
b0 "
0;
05
03
06
09
14
07
08
0<
#253890
b1 "
1:
1?
1<
#257796
b0 "
0:
0?
0<
#257813
b10 "
1;
1?
1<
#261702
b11 "
1:
#265608
b10 "
0:
#265625
b110 "
b100 "
0;
15
0?
0<
1=
#269514
b101 "
1:
1?
1<
#273420
b100 "
0:
0?
0<
#273438
b110 "
1;
1?
1<
#277326
b111 "
1:
#281232
b110 "
0:
#281250
b1110 "
b1010 "
b1000 "
0;
05
13
0?
0<
0=
18
1<
#285138
b1001 "
1:
0<
#289044
b1000 "
0:
1<
#289063
b1010 "
1;
1?
#292950
b1011 "
1:
#296856
b1010 "
0:
#296875
b1110 "
b1100 "
0;
15
0?
#300762
b1101 "
1:
0<
#304668
b1100 "
0:
1<
#304688
b1110 "
1;
1?
#308574
b1111 "
1:
#312480
b1110 "
0:
#312500
b101 !
b110 "
b10 "
b0 "
0;
05
03
16
0?
08
0<
#316386
b1 "
1:
1?
1<
#320292
b0 "
0:
0?
0<
#320313
b10 "
1;
1?
1<
#324198
b11 "
1:
#328104
b10 "
0:
#328125
b110 "
b100 "
0;
15
0?
0<
1=
17
18
1<
#332010
b101 "
1:
0<
#335916
b100 "
0:
1<
#335938
b110 "
1;
1?
#339822
b111 "
1:
#343728
b110 "
0:
#343750
b1110 "
b1010 "
b1000 "
0;
05
13
0?
0=
07
#347634
b1001 "
1:
0<
#351540
b1000 "
0:
1<
#351563
b1010 "
1;
1?
#355446
b1011 "
1:
#359352
b1010 "
0:
#359375
b1110 "
b1100 "
0;
15
0?
17
#363258
b1101 "
1:
0<
#367164
b1100 "
0:
1<
#367188
b1110 "
1;
1?
#371070
b1111 "
1:
#374976
b1110 "
0:
#375000
b111 !
b110 !
b110 "
b10 "
b0 "
0;
05
03
06
19
0?
07
08
#378882
b1 "
1:
#382788
b0 "
0:
#382813
b10 "
1;
0<
#386694
b11 "
1:
1?
1<
#390600
b10 "
0:
0?
0<
#390625
b110 "
b100 "
0;
15
1<
1=
#394506
b101 "
1:
#398412
b100 "
0:
#398438
b110 "
1;
0<
#402318
b111 "
1:
1?
1<
#406224
b110 "
0:
0?
0<
#406250
b1110 "
b1010 "
b1000 "
0;
05
13
1<
0=
18
#410130
b1001 "
1:
#414036
b1000 "
0:
#414063
b1010 "
1;
#417942
b1011 "
1:
0<
#421848
b1010 "
0:
1<
#421875
b1110 "
b1100 "
0;
15
#425754
b1101 "
1:
#429660
b1100 "
0:
#429688
b1110 "
1;
#433566
b1111 "
1:
0<
#437472
b1110 "
0:
1<
#437500
b111 !
b110 "
b10 "
b0 "
0;
05
03
16
08
#441378
b1 "
1:
#445284
b0 "
0:
#445313
b10 "
1;
0<
#449190
b11 "
1:
1?
1<
#453096
b10 "
0:
0?
0<
#453125
b110 "
b100 "
0;
15
1<
1=
17
18
#457002
b101 "
1:
#460908
b100 "
0:
#460938
b110 "
1;
#464814
b111 "
1:
0<
#468720
b110 "
0:
1<
#468750
b1110 "
b1010 "
b1000 "
0;
05
13
0=
07
#472626
b1001 "
1:
#476532
b1000 "
0:
#476563
b1010 "
1;
#480438
b1011 "
1:
0<
#484344
b1010 "
0:
1<
#484375
b1110 "
b1100 "
0;
15
17
#488250
b1101 "
1:
#492156
b1100 "
0:
#492188
b1110 "
1;
#496062
b1111 "
1:
0<
#499968
b1110 "
0:
1<
#500000
b1111 !
b1011 !
b1001 !
b1000 !
b110 "
b10 "
b0 "
0;
05
03
06
09
04
12
07
08
0<
#503874
b1 "
1:
1?
1<
#507780
b0 "
0:
0?
0<
#507813
b10 "
1;
1?
1<
#511686
b11 "
1:
#515592
b10 "
0:
#515625
b110 "
b100 "
0;
15
0?
0<
17
#519498
b101 "
1:
1?
1<
#523404
b100 "
0:
0?
0<
#523438
b110 "
1;
1?
1<
#527310
b111 "
1:
#531216
b110 "
0:
#531250
b1110 "
b1010 "
b1000 "
0;
05
13
0?
0<
1=
07
18
08
1<
0<
#535122
b1001 "
1:
1?
1<
#539028
b1000 "
0:
0?
0<
#539063
b1010 "
1;
1?
1<
#542934
b1011 "
1:
#546840
b1010 "
0:
#546875
b1110 "
b1100 "
0;
15
0?
0<
0=
17
18
1<
#550746
b1101 "
1:
0<
#554652
b1100 "
0:
1<
#554688
b1110 "
1;
1?
#558558
b1111 "
1:
#562464
b1110 "
0:
#562500
b1001 !
b110 "
b10 "
b0 "
0;
05
03
16
0?
08
0<
#566370
b1 "
1:
1?
1<
#570276
b0 "
0:
0?
0<
#570313
b10 "
1;
1?
1<
#574182
b11 "
1:
#578088
b10 "
0:
#578125
b110 "
b100 "
0;
15
0?
0<
#581994
b101 "
1:
1?
1<
#585900
b100 "
0:
0?
0<
#585938
b110 "
1;
1?
1<
#589806
b111 "
1:
#593712
b110 "
0:
#593750
b1110 "
b1010 "
b1000 "
0;
05
13
0?
0<
1=
18
1<
#597618
b1001 "
1:
0<
#601524
b1000 "
0:
1<
#601563
b1010 "
1;
1?
#605430
b1011 "
1:
#609336
b1010 "
0:
#609375
b1110 "
b1100 "
0;
15
0?
0=
#613242
b1101 "
1:
0<
#617148
b1100 "
0:
1<
#617188
b1110 "
1;
1?
#621054
b1111 "
1:
#624960
b1110 "
0:
#625000
b1011 !
b1010 !
b110 "
b10 "
b0 "
0;
05
03
06
19
0?
07
08
#628866
b1 "
1:
#632772
b0 "
0:
#632813
b10 "
1;
0<
#636678
b11 "
1:
1?
1<
#640584
b10 "
0:
0?
0<
#640625
b110 "
b100 "
0;
15
1<
17
#644490
b101 "
1:
#648396
b100 "
0:
#648438
b110 "
1;
0<
#652302
b111 "
1:
1?
1<
#656208
b110 "
0:
0?
0<
#656250
b1110 "
b1010 "
b1000 "
0;
05
13
1<
1=
07
18
08
#660114
b1001 "
1:
#664020
b1000 "
0:
#664063
b1010 "
1;
0<
#667926
b1011 "
1:
1?
1<
#671832
b1010 "
0:
0?
0<
#671875
b1110 "
b1100 "
0;
15
1<
0=
17
18
#675738
b1101 "
1:
#679644
b1100 "
0:
#679688
b1110 "
1;
#683550
b1111 "
1:
0<
#687456
b1110 "
0:
1<
#687500
b1011 !
b110 "
b10 "
b0 "
0;
05
03
16
08
#691362
b1 "
1:
#695268
b0 "
0:
#695313
b10 "
1;
0<
#699174
b11 "
1:
1?
1<
#703080
b10 "
0:
0?
0<
#703125
b110 "
b100 "
0;
15
1<
#706986
b101 "
1:
#710892
b100 "
0:
#710938
b110 "
1;
0<
#714798
b111 "
1:
1?
1<
#718704
b110 "
0:
0?
0<
#718750
b1110 "
b1010 "
b1000 "
0;
05
13
1<
1=
18
#722610
b1001 "
1:
#726516
b1000 "
0:
#726563
b1010 "
1;
#730422
b1011 "
1:
0<
#734328
b1010 "
0:
1<
#734375
b1110 "
b1100 "
0;
15
0=
#738234
b1101 "
1:
#742140
b1100 "
0:
#742188
b1110 "
1;
#746046
b1111 "
1:
0<
#749952
b1110 "
0:
1<
#750000
b1111 !
b1101 !
b1100 !
b110 "
b10 "
b0 "
0;
05
03
06
09
14
07
08
0<
#753858
b1 "
1:
1?
1<
#757764
b0 "
0:
0?
0<
#757813
b10 "
1;
1?
1<
#761670
b11 "
1:
#765576
b10 "
0:
#765625
b110 "
b100 "
0;
15
0?
0<
#769482
b101 "
1:
1?
1<
#773388
b100 "
0:
0?
0<
#773438
b110 "
1;
1?
1<
#777294
b111 "
1:
#781200
b110 "
0:
#781250
b1110 "
b1010 "
b1000 "
0;
05
13
0?
0<
#785106
b1001 "
1:
1?
1<
#789012
b1000 "
0:
0?
0<
#789063
b1010 "
1;
1?
1<
#792918
b1011 "
1:
#796824
b1010 "
0:
#796875
b1110 "
b1100 "
0;
15
0?
0<
1=
#800730
b1101 "
1:
1?
1<
#804636
b1100 "
0:
0?
0<
#804688
b1110 "
1;
1?
1<
#808542
b1111 "
1:
#812448
b1110 "
0:
#812500
b1101 !
b110 "
b10 "
b0 "
0;
05
03
16
0?
0<
0=
#816354
b1 "
1:
1?
1<
#820260
b0 "
0:
0?
0<
#820313
b10 "
1;
1?
1<
#824166
b11 "
1:
#828072
b10 "
0:
#828125
b110 "
b100 "
0;
15
0?
0<
17
#831978
b101 "
1:
1?
1<
#835884
b100 "
0:
0?
0<
#835938
b110 "
1;
1?
1<
#839790
b111 "
1:
#843696
b110 "
0:
#843750
b1110 "
b1010 "
b1000 "
0;
05
13
0?
0<
07
18
08
1<
0<
#847602
b1001 "
1:
1?
1<
#851508
b1000 "
0:
0?
0<
#851563
b1010 "
1;
1?
1<
#855414
b1011 "
1:
#859320
b1010 "
0:
#859375
b1110 "
b1100 "
0;
15
0?
0<
1=
17
18
1<
#863226
b1101 "
1:
0<
#867132
b1100 "
0:
1<
#867188
b1110 "
1;
1?
#871038
b1111 "
1:
#874944
b1110 "
0:
#875000
b1111 !
b1110 !
b110 "
b10 "
b0 "
0;
05
03
06
19
0?
0=
07
08
#878850
b1 "
1:
#882756
b0 "
0:
#882813
b10 "
1;
0<
#886662
b11 "
1:
1?
1<
#890568
b10 "
0:
0?
0<
#890625
b110 "
b100 "
0;
15
1<
#894474
b101 "
1:
#898380
b100 "
0:
#898438
b110 "
1;
0<
#902286
b111 "
1:
1?
1<
#906192
b110 "
0:
0?
0<
#906250
b1110 "
b1010 "
b1000 "
0;
05
13
1<
#910098
b1001 "
1:
#914004
b1000 "
0:
#914063
b1010 "
1;
0<
#917910
b1011 "
1:
1?
1<
#921816
b1010 "
0:
0?
0<
#921875
b1110 "
b1100 "
0;
15
1<
1=
#925722
b1101 "
1:
#929628
b1100 "
0:
#929688
b1110 "
1;
0<
#933534
b1111 "
1:
1?
1<
#937440
b1110 "
0:
0?
0<
#937500
b1111 !
b110 "
b10 "
b0 "
0;
05
03
16
1<
0=
#941346
b1 "
1:
#945252
b0 "
0:
#945313
b10 "
1;
0<
#949158
b11 "
1:
1?
1<
#953064
b10 "
0:
0?
0<
#953125
b110 "
b100 "
0;
15
1<
17
#956970
b101 "
1:
#960876
b100 "
0:
#960938
b110 "
1;
0<
#964782
b111 "
1:
1?
1<
#968688
b110 "
0:
0?
0<
#968750
b1110 "
b1010 "
b1000 "
0;
05
13
1<
07
18
08
#972594
b1001 "
1:
#976500
b1000 "
0:
#976563
b1010 "
1;
0<
#980406
b1011 "
1:
1?
1<
#984312
b1010 "
0:
0?
0<
#984375
b1110 "
b1100 "
0;
15
1<
1=
17
18
#988218
b1101 "
1:
#992124
b1100 "
0:
#992188
b1110 "
1;
#996030
b1111 "
1:
0<
#999936
b1110 "
0:
1<
